Data Exploration – Ecommerce Project
…
# A tibble: 2 × 2
  product_category count_product_category
  <chr>                             <int>
1 Accessories                       26462
2 Active                            16152

inventory_items %>% 
  group_by(product_brand) %>% 
  summarise(
    count_product_brand = n()
  ) %>% 
  arrange(desc(count_product_brand))

# A tibble: 565 × 2
   product_brand count_product_brand
   <chr>                       <int>
 1 Champion                     1840
 2 Ray-Ban                      1681
 3 Carhartt                     1395
 4 Oakley                       1245
 5 Columbia                     1229
 6 Nike                          727
 7 TrendsBlue                    619
 8 ExOfficio                     577
 9 Duofold                       565
10 Isotoner                      564
# ℹ 555 more rows
…
